MA206 Tidyverse Tutorial 21-2
…
group_by()
Group by one or more variables

mutate()
Add new variables

Reducing the number of variables you are working with (select())

When working with real world data you will usually have more variables (usually columns) than you are interested in. Big data sets may difficult for your computer to handle. As we stated in the beginning, the original 2018 ASEC CPS Survey data set had over 400 variables. We used the select() command, which retains or removes columns from a data set, to reduce the original data set of over 400 variables to the 10 variables you will use in this tutorial. However, lets say you are only intereted in the sex, and age variables. You can use the select() command to choose only those columns.

wage_data %>% 
  select(Earnings, Sex, Age)

## # A tibble: 180,084 x 3
##    Earnings Sex     Age
##       <dbl> <chr> <dbl>
##  1   220000 M        49
##  2        0 F        51
##  3     8000 F        20
##  4     4000 M        16
##  5        0 F        80
##  6    17350 M        27
##  7    12000 M        24
##  8    25480 M        62
##  9        0 F        70
## 10     6000 F        53
## # ... with 180,074 more rows

Notice that the order you choose for the variables in the select() command is the order of the columns in your output.

You can also use - to remove columns. Below we will remove the all columns except for those three variables of interest to achieve the same result.

wage_data %>% 
  select(-Education, -Occupation, -MaritalStatus, -Race, -FamilySize, -FamilyMakeup, -Age_squared)

## # A tibble: 180,084 x 3
##    Sex     Age Earnings
##    <chr> <dbl>    <dbl>
##  1 M        49   220000
##  2 F        51        0
##  3 F        20     8000
##  4 M        16     4000
##  5 F        80        0
##  6 M        27    17350
##  7 M        24    12000
##  8 M        62    25480
##  9 F        70        0
## 10 F        53     6000
## # ... with 180,074 more rows

By removing these variables, the remaining columns remain in the same order as in the original data.

Working with certain observations in our data (filter())

Similar to how we selected certain variables (columns), we can also select certain observations (rows) using the filter() command. Since we are interested in assessing what factors impact earnings, it would make sense to only look at individuals who have earnings. To eliminate individuals that did not have any earnings in the last year, we can use the filter() command. The filter command works just like the filter command in Excel. It works with equalities and inequalities: ==,<=,>=,<,> and not equal to !=.

wage_data %>%
  filter(Earnings>0)

## # A tibble: 84,782 x 10
##    Education Sex   Occupation   Age Earnings MaritalStatus Race  FamilySize
##    <chr>     <chr> <chr>      <dbl>    <dbl> <chr>         <chr>      <dbl>
##  1 Bachelors M     40: Offic~    49   220000 Married       White          5
##  2 Less tha~ F     39: Retai~    20     8000 Never Married White          5
##  3 Less tha~ M     8: Comput~    16     4000 Never Married White          5
##  4 Less tha~ M     32: Chefs~    27    17350 Never Married Black          2
##  5 Less tha~ M     33: Food ~    24    12000 Never Married Hisp~          2
##  6 Bachelors M     31: Anima~    62    25480 Never Married White          1
##  7 Bachelors F     41: Farmi~    53     6000 Married       White          6
##  8 Bachelors M     8: Comput~    52    70200 Married       Asian          6
##  9 Less tha~ F     41: Farmi~    16    10520 Never Married Asian          6
## 10 Some Col~ F     30: Publi~    31    46000 Married       White          4
## # ... with 84,772 more rows, and 2 more variables: FamilyMakeup <chr>,
## #   Age_squared <dbl>

If you were to read this code, you would say: Take wage_data and then filter to keep only the individuals that earned more than $0 in the last year. The resulting data set has been reduced from 180,084 observations to 84,782 observations.

We are also able to use the filter() command on categorical variables. NOTE: When using the filter command to filter based on a string (words) you will have to put the words inside of "".

Here we can retain only the rows of data where occupation does not equal 53: Never Worked.

wage_data%>%
  filter(Occupation!="53: Never Worked")

## # A tibble: 89,661 x 10
##    Education Sex   Occupation   Age Earnings MaritalStatus Race  FamilySize
##    <chr>     <chr> <chr>      <dbl>    <dbl> <chr>         <chr>      <dbl>
##  1 Bachelors M     40: Offic~    49   220000 Married       White          5
##  2 Less tha~ F     39: Retai~    20     8000 Never Married White          5
##  3 Less tha~ M     8: Comput~    16     4000 Never Married White          5
##  4 Less tha~ M     32: Chefs~    27    17350 Never Married Black          2
##  5 Less tha~ M     33: Food ~    24    12000 Never Married Hisp~          2
##  6 Bachelors M     31: Anima~    62    25480 Never Married White          1
##  7 Bachelors F     41: Farmi~    53     6000 Married       White          6
##  8 Bachelors M     8: Comput~    52    70200 Married       Asian          6
##  9 Less tha~ F     41: Farmi~    16    10520 Never Married Asian          6
## 10 Some Col~ F     30: Publi~    31    46000 Married       White          4
## # ... with 89,651 more rows, and 2 more variables: FamilyMakeup <chr>,
## #   Age_squared <dbl>
The resulting data set has been reduced from the original 180,084 observations to 89,661 observations which doesnt match the number of observations when we filtered on earnings>0. This indicates that some people worked at some time but reported no earnings, while others are labeled as Never Worked but reported earnings.

Using the ampersand, &, we can filter for both requirements at the same time and save the result as a new data set of employed individuals.

employed_data = wage_data%>%
  filter(Occupation!="53: Never Worked" & Earnings>0)

You will notice you have a new data frame in your global environment called employed_data. We will use this new data frame as we continue our exploration of the data.

Similar to using the & to filter for observations that meet two requirements at the same time, we can use | to filter for observations that meet at least one of a set of requirements. For example, if we want to filter for those individuals with a high school education or less we can use the following code. This will filter for observations that list education as either Less than HS or HS Graduate.

wage_data %>% 
  filter(Education=="HS Graduate" | Education =="Less than HS")

## # A tibble: 99,222 x 10
##    Education Sex   Occupation   Age Earnings MaritalStatus Race  FamilySize
##    <chr>     <chr> <chr>      <dbl>    <dbl> <chr>         <chr>      <dbl>
##  1 Less tha~ F     39: Retai~    20     8000 Never Married White          5
##  2 Less tha~ M     8: Comput~    16     4000 Never Married White          5
##  3 Less tha~ F     53: Never~    80        0 Widowed       White          5
##  4 Less tha~ M     32: Chefs~    27    17350 Never Married Black          2
##  5 Less tha~ M     33: Food ~    24    12000 Never Married Hisp~          2
##  6 Less tha~ F     53: Never~    70        0 Widowed       White          1
##  7 Less tha~ F     41: Farmi~    16    10520 Never Married Asian          6
##  8 Less tha~ M     53: Never~    32        0 Married       White          4
##  9 Less tha~ M     48: Insta~    37    40000 Never Married White          1
## 10 Less tha~ F     3: Educat~    49    47000 Married       White          3
## # ... with 99,212 more rows, and 2 more variables: FamilyMakeup <chr>,
## #   Age_squared <dbl>
…
Here we see the largest difference is between married males and females while the smallest difference is between never married males and females. This indicates that marital status may have an impact on earnings.

Creating New Variables (mutate())

As you explore a data set you might want to create a new variable using your existing variables. For example, what if you wanted a new variable: Earnings per family member. The mutate command allows you to create new variables (columns) using mathematical manipulations.

employed_data %>%
  mutate(Earnings_per_member=Earnings/FamilySize) %>% 
  select(Earnings, FamilySize, Earnings_per_member)

## # A tibble: 84,631 x 3
##    Earnings FamilySize Earnings_per_member
##       <dbl>      <dbl>               <dbl>
##  1   220000          5              44000 
##  2     8000          5               1600 
##  3     4000          5                800 
##  4    17350          2               8675 
##  5    12000          2               6000 
##  6    25480          1              25480 
##  7     6000          6               1000 
##  8    70200          6              11700 
##  9    10520          6               1753.
## 10    46000          4              11500 
## # ... with 84,621 more rows
…
